17.371
10.775
7.3945
5.4112
4.1864
3.7342
3.6944
4.1205
4.8984
5.2277
5.0229
4.7183
4.5407
4.6059
4.6213
4.5427
4.4936
4.8119
5.1199
5.2998
5.7135
5.9395
5.7607
5.6258
5.8399
5.7735
5.6809
5.3568
5.3435
5.5298
5.7241
5.549
5.3167
5.3941
5.5189
5.7913
5.7239
5.5289
5.6051
5.6273
5.7226
5.7319
5.5975
5.5767
5.6276
5.7833
5.8595
5.9959
5.8563
6.1175
5.93
5.8042
5.8358
5.7504
5.8044
5.9562
6.1599
6.098
6.0262
5.8994
5.7511
5.6203
5.9371
5.7488
5.6914
5.6113
5.8187
6.1913
6.1836
6.0213
5.9142
5.9911
6.2475
6.0631
5.9331
5.8733
6.034
5.8962
5.9514
5.884
5.8395
5.7307
5.9692
6.0857
6.0095
6.12
6.0422
5.9904
5.8889
5.9005
5.9541
5.9098
5.8896
5.9755
6.0427
6.0135
5.946
5.962
5.7064
5.7045
6.1596
