3.937
1.4646
1.9623
2.5958
3.3833
4.0032
4.4085
4.4587
4.1201
3.7006
3.6088
3.7248
3.674
3.4916
3.3528
3.2871
3.3886
3.3235
3.2539
3.4192
3.4807
3.4637
3.5248
3.6631
3.5269
3.3605
3.3149
3.4778
3.6287
3.6485
3.3695
3.3308
3.5721
3.6032
3.6033
3.4402
3.37
3.4518
3.6012
3.4402
3.4361
3.4468
3.475
3.5898
3.5934
3.6164
3.5335
3.3626
3.425
3.3673
3.3114
3.5103
3.433
3.4899
3.5559
3.4886
3.3192
3.3409
3.3246
3.4225
3.4784
3.6957
3.435
3.4237
3.4944
3.6997
3.6707
3.4525
3.2339
3.2766
3.4477
3.492
3.343
3.2947
3.3354
3.5097
3.3759
3.4001
3.3909
3.4256
3.4876
3.6275
3.4908
3.3731
3.3839
3.3253
3.3418
3.3986
3.4008
3.4547
3.4693
3.4236
3.493
3.4014
3.3755
3.3793
3.3921
3.3546
3.5728
3.7048
3.4411
