6.8518
1.3389
1.8564
2.4989
3.2821
3.8924
4.2894
4.3304
3.956
3.3607
3.1318
3.2355
3.3465
3.4229
3.5177
3.6126
3.7755
3.6409
3.289
3.1291
3.0096
2.9686
3.0602
3.1817
3.0622
2.9629
2.9412
3.0893
3.2018
3.2017
2.9686
2.9471
3.1517
3.1526
3.1384
2.9937
2.957
3.0339
3.1668
3.0422
3.0616
3.0929
3.1218
3.2241
3.2134
3.2224
3.1589
3.0281
3.1066
3.0753
3.0534
3.2288
3.1587
3.2005
3.2453
3.1867
3.0483
3.085
3.0805
3.1646
3.2046
3.3826
3.129
3.1316
3.1956
3.3561
3.3049
3.1225
2.9681
3.029
3.1837
3.2141
3.0831
3.0629
3.1053
3.2597
3.1283
3.1551
3.1419
3.1656
3.2141
3.33
3.1818
3.0817
3.1067
3.0619
3.0982
3.1568
3.1628
3.2094
3.2117
3.161
3.211
3.1196
3.1127
3.128
3.1432
3.1107
3.306
3.3944
3.1405
