7.6267
1.5622
2.0985
2.7735
3.61
4.3094
4.8503
5.2029
5.2626
4.2547
3.473
3.2088
3.1152
3.1502
3.2969
3.4366
3.6108
3.4838
3.3011
3.4059
3.4625
3.4604
3.5333
3.6784
3.5673
3.421
3.3832
3.5557
3.7252
3.7671
3.4972
3.4469
3.694
3.7476
3.7353
3.5339
3.44
3.5088
3.6582
3.5162
3.5182
3.5382
3.5641
3.6692
3.6628
3.667
3.5784
3.4164
3.4845
3.4423
3.409
3.6025
3.5314
3.5837
3.6394
3.5739
3.4136
3.4389
3.4303
3.5233
3.5767
3.7794
3.5205
3.5095
3.5806
3.7703
3.7261
3.5186
3.3259
3.3811
3.5544
3.5938
3.4487
3.4141
3.464
3.641
3.5119
3.5294
3.5175
3.5492
3.6084
3.7393
3.5901
3.4663
3.4794
3.4311
3.4591
3.525
3.5347
3.5896
3.5978
3.5423
3.5988
3.5033
3.4834
3.4935
3.5116
3.4803
3.6893
3.8019
3.5339
