3.8992
9.6438
7.1945
5.3106
4.0758
3.5446
3.3277
3.4224
3.8126
4.0734
4.0304
3.8514
3.7504
3.8633
4.0314
4.5817
5.5511
6.3631
6.3443
5.8463
5.7067
5.7006
5.4994
5.3718
5.6554
5.6513
5.5576
5.2059
5.1788
5.3763
5.6034
5.4195
5.1435
5.1923
5.2974
5.5548
5.473
5.2549
5.3177
5.3592
5.4411
5.4135
5.2294
5.1577
5.1622
5.2812
5.3546
5.5004
5.3349
5.5976
5.4216
5.2486
5.3037
5.2271
5.2763
5.4449
5.6868
5.626
5.5466
5.3935
5.237
5.0896
5.4445
5.2553
5.1463
4.9917
5.1683
5.5846
5.6253
5.4114
5.1957
5.2102
5.492
5.3039
5.0544
4.8121
4.8404
4.5873
4.4759
4.2157
4.1025
3.9636
4.1991
4.335
4.238
4.3105
4.2221
4.1393
4.0317
4.0348
4.0929
4.0757
4.0453
4.1423
4.2247
4.191
4.1024
4.106
3.8314
3.7763
4.2688
