9.2043
10.625
7.3901
5.3594
4.1085
3.6149
3.4883
3.7402
4.4105
5.0996
5.5031
5.6971
5.8218
5.9676
5.8623
5.6499
5.5074
5.6456
5.5314
5.1756
5.239
5.4362
5.38
5.3455
5.6533
5.643
5.5588
5.2324
5.2328
5.4541
5.6901
5.517
5.2639
5.3332
5.4551
5.7183
5.6319
5.4161
5.4849
5.5189
5.5984
5.5689
5.3854
5.3263
5.3543
5.503
5.5975
5.745
5.5767
5.8195
5.6213
5.457
5.4954
5.4065
5.4574
5.6279
5.8566
5.7834
5.6963
5.5457
5.3867
5.2421
5.5939
5.4131
5.3269
5.2083
5.4244
5.8605
5.8836
5.6729
5.5043
5.5679
5.8594
5.6852
5.5221
5.4317
5.6264
5.5271
5.599
5.5381
5.5086
5.4229
5.7114
5.8697
5.7822
5.8703
5.7717
5.6916
5.5812
5.5956
5.6681
5.6466
5.6307
5.7314
5.8107
5.764
5.6672
5.6745
5.3987
5.3992
5.9302
