2.243
9.2409
7.1903
5.3675
4.119
3.5514
3.2697
3.2622
3.5403
3.7416
3.6853
3.4894
3.3699
3.4536
3.4526
3.206
2.7836
2.4618
1.8858
0.79266
0
0.065554
0.25228
0.34982
0.57175
0.86624
0.98613
0.70282
0.4032
0.19855
0.41549
0.63097
0.53333
0.4328
0.40621
0.66224
0.8833
0.88246
0.89903
0.97132
1.1941
1.2547
1.1332
1.0134
0.87247
0.88198
1.0033
1.3353
1.3724
1.6887
1.6491
1.4816
1.4938
1.3847
1.3428
1.4752
1.7703
1.8459
1.8274
1.7016
1.4951
1.2281
1.4359
1.4197
1.3428
1.0203
0.95041
1.3428
1.7046
1.7482
1.5761
1.541
1.8445
1.8465
1.7274
1.543
1.6074
1.5713
1.6352
1.5308
1.4074
1.1742
1.299
1.5603
1.6372
1.7709
1.7819
1.7219
1.6042
1.5486
1.5278
1.5075
1.4557
1.5367
1.6755
1.7222
1.6578
1.64
1.3489
1.1047
1.4532
