2.2614
10.795
7.5649
5.493
4.1834
3.6031
3.3251
3.3261
3.6056
3.7952
3.6852
3.3613
2.9808
2.4687
1.4038
0.18464
0.0062143
1.0608
2.7836
3.4515
3.8928
4.2862
4.3613
4.4117
4.8481
4.9561
4.8715
4.5025
4.4698
4.7084
4.9828
4.779
4.464
4.5045
4.632
4.9085
4.8073
4.5503
4.5759
4.6342
4.6999
4.6506
4.4643
4.3891
4.4171
4.5682
4.671
4.8139
4.6052
4.8153
4.6148
4.3925
4.4344
4.3549
4.404
4.5896
4.8427
4.7657
4.6612
4.4778
4.3006
4.1546
4.5492
4.3914
4.2728
4.1201
4.3472
4.8168
4.8743
4.6244
4.381
4.4017
4.7187
4.5868
4.4072
4.2885
4.5013
4.4359
4.5141
4.4655
4.4538
4.3935
4.7086
4.8813
4.7873
4.8668
4.765
4.673
4.5662
4.5837
4.6679
4.6628
4.6443
4.7545
4.8288
4.7762
4.6776
4.6837
4.4147
4.409
4.9525
