13.101
10.015
7.0923
5.2559
4.0404
3.5036
3.2755
3.421
4.245
5.4872
6.0719
5.9565
5.647
5.4256
5.1116
4.8322
4.7226
5.0702
5.3277
5.2306
5.3307
5.4103
5.2454
5.1841
5.5274
5.5748
5.5216
5.2035
5.2031
5.4308
5.685
5.5385
5.3201
5.4324
5.598
5.8747
5.775
5.5498
5.615
5.6364
5.7203
5.6982
5.53
5.5003
5.5624
5.7457
5.8596
6.0059
5.8381
6.072
5.854
5.701
5.7443
5.6733
5.7509
5.9348
6.1475
6.0545
5.9468
5.7941
5.6462
5.5347
5.9062
5.7379
5.672
5.5847
5.807
6.1971
6.1576
5.9247
5.759
5.8266
6.1052
5.9133
5.7501
5.6737
5.8656
5.7599
5.8286
5.7651
5.7349
5.6624
5.968
6.1265
6.0353
6.1125
5.9984
5.9125
5.7977
5.8171
5.9002
5.8929
5.898
6.0019
6.0683
6.0099
5.9095
5.9146
5.6585
5.6886
6.1998
