2.9056
9.2777
7.0725
5.2807
4.0586
3.5071
3.2577
3.3687
4.0249
4.7879
4.9891
4.8705
4.7456
4.7763
4.7373
4.7144
5.0703
6.3112
7.1115
6.8964
6.596
6.2346
5.7229
5.4514
5.6776
5.6875
5.6318
5.3064
5.2836
5.473
5.6866
5.5337
5.3222
5.4236
5.5714
5.8394
5.7513
5.5443
5.6089
5.6096
5.6796
5.6471
5.4744
5.4333
5.4664
5.6117
5.6889
5.8203
5.6653
5.9106
5.7121
5.5785
5.6182
5.5435
5.6071
5.7673
5.9664
5.8885
5.8006
5.6668
5.5244
5.4068
5.7448
5.5658
5.4991
5.4013
5.5938
5.9584
5.9333
5.7419
5.6069
5.6776
5.9485
5.7695
5.6259
5.555
5.7282
5.6111
5.6724
5.601
5.5561
5.4558
5.716
5.8478
5.7613
5.8502
5.7578
5.6938
5.5905
5.6089
5.6761
5.6495
5.6379
5.7269
5.7919
5.7495
5.6683
5.6824
5.4308
5.4437
5.9256
