4.0336
9.1009
7.1893
5.418
4.1734
3.5982
3.3114
3.3274
3.717
4.1033
4.1176
3.9075
3.7271
3.7203
3.6458
3.3974
3.3577
4.7809
6.0442
5.945
5.681
5.3258
4.8089
4.4559
4.5902
4.6444
4.6805
4.4254
4.4149
4.6145
4.9525
4.9368
4.7732
4.8916
5.0722
5.4134
5.4018
5.2164
5.2815
5.3086
5.3903
5.3646
5.183
5.1206
5.1396
5.2794
5.3719
5.5266
5.3705
5.6258
5.4448
5.2877
5.3337
5.2524
5.3049
5.4759
5.7073
5.6415
5.5577
5.4068
5.246
5.1003
5.4541
5.2828
5.1973
5.0661
5.256
5.6665
5.6881
5.4888
5.3234
5.3853
5.6839
5.5258
5.3688
5.2723
5.4554
5.3492
5.4083
5.3268
5.2689
5.1525
5.4169
5.5743
5.4951
5.5876
5.4996
5.4239
5.3147
5.327
5.3937
5.3702
5.3485
5.4425
5.5249
5.488
5.3991
5.4123
5.137
5.1194
5.633
