5.5645
1.5241
2.022
2.6691
3.4723
4.1093
4.5311
4.6024
4.2892
3.9015
3.8535
4.0119
3.943
3.7105
3.5621
3.553
3.7316
3.7318
3.6585
3.6738
3.4432
3.2168
3.1991
3.3
3.2091
3.1507
3.1703
3.3513
3.4903
3.5029
3.2606
3.2461
3.4797
3.5014
3.5021
3.3569
3.3063
3.3874
3.5276
3.3796
3.3819
3.4003
3.4239
3.5274
3.5274
3.5497
3.4831
3.3341
3.4009
3.3463
3.299
3.4808
3.4033
3.4555
3.515
3.458
3.3055
3.33
3.3124
3.3954
3.4403
3.6407
3.3909
3.396
3.4725
3.6652
3.6342
3.4377
3.2424
3.2831
3.4369
3.4652
3.3198
3.2847
3.3248
3.4871
3.3541
3.3817
3.3749
3.4061
3.4631
3.5961
3.462
3.357
3.3742
3.3166
3.333
3.3858
3.3863
3.4367
3.4477
3.4035
3.47
3.382
3.3632
3.3687
3.3782
3.3396
3.5474
3.6652
3.4138
