13.253
10.395
7.3727
5.4293
4.1559
3.5833
3.3051
3.3083
3.5994
3.8051
3.7501
3.5654
3.4675
3.5813
3.61
3.4086
3.0815
3.0122
3.0052
2.7237
2.8088
3.2009
3.3181
3.2774
3.5135
3.5818
3.5443
3.2184
3.135
3.3053
3.6602
3.6368
3.4101
3.4199
3.5055
3.7863
3.7798
3.5982
3.6256
3.6721
3.7735
3.7558
3.5797
3.4855
3.457
3.5565
3.6564
3.8526
3.727
3.9829
3.8408
3.6703
3.7101
3.6141
3.6273
3.7846
4.0356
4.0039
3.9433
3.7999
3.6286
3.4415
3.7562
3.6182
3.5158
3.3125
3.4351
3.8665
4.0029
3.864
3.6911
3.7329
4.0439
3.9335
3.7826
3.6576
3.8127
3.7218
3.7716
3.6768
3.5956
3.4442
3.6744
3.8691
3.833
3.9358
3.8778
3.8055
3.6977
3.6884
3.728
3.7044
3.6654
3.7574
3.8579
3.846
3.7639
3.769
3.4846
3.389
3.8707
