4.5975
1.6017
2.1182
2.7793
3.6105
4.3177
4.8991
5.3928
5.728
4.9898
4.0568
3.5573
3.3823
3.4049
3.5736
3.7625
3.9811
3.8884
3.6902
3.7671
3.8019
3.7801
3.8352
3.9834
3.8553
3.6596
3.6053
3.7824
3.9664
4.0075
3.7022
3.6178
3.8493
3.8782
3.8345
3.6139
3.5036
3.5716
3.7268
3.5841
3.5798
3.5955
3.6224
3.7329
3.729
3.7278
3.6256
3.4493
3.5072
3.4643
3.4279
3.6265
3.5622
3.6154
3.6739
3.6057
3.4363
3.4521
3.4453
3.5422
3.6031
3.813
3.5594
3.5341
3.6038
3.7887
3.7391
3.5216
3.3226
3.3774
3.5587
3.6101
3.4667
3.425
3.478
3.6615
3.5381
3.5483
3.5334
3.5625
3.6212
3.7518
3.5939
3.4548
3.4594
3.4124
3.4404
3.5095
3.5256
3.5859
3.5965
3.5384
3.5863
3.4854
3.461
3.4692
3.4935
3.4698
3.6798
3.7876
3.5132
