12.664
11.226
8.0018
5.9588
4.6876
3.9647
3.711
3.9207
4.3879
4.6488
4.5932
4.4528
4.4292
4.6401
5.0331
5.3655
5.4689
5.4167
5.3481
5.3393
5.3975
5.5098
5.6794
5.8146
5.7894
5.6511
5.5098
5.4292
5.4169
5.4385
5.4601
5.4743
5.487
5.502
5.5162
5.5243
5.5249
5.5217
5.519
5.5189
5.521
5.5238
5.5265
5.5286
5.5305
5.5324
5.5346
5.537
5.5396
5.5425
5.5458
5.5495
5.5537
5.5581
5.5604
5.5601
5.558
5.555
5.5514
5.5475
5.544
5.5412
5.5389
5.5372
5.5361
5.5352
5.5346
5.534
5.5335
5.533
5.5325
5.5322
5.5319
5.5316
5.5313
5.5311
5.5309
5.5307
5.5306
5.5305
5.5304
5.5303
5.5303
5.5303
5.5303
5.5303
5.5304
5.5305
5.5306
5.5308
5.5311
5.5315
5.5321
5.5327
5.5331
5.5333
5.5334
5.5335
5.5336
5.5337
5.5338
