7.5145
11.812
8.2639
6.0692
4.7259
3.9428
3.6077
3.6973
4.0484
4.2549
4.1706
3.9742
3.8275
3.7884
3.8298
3.8761
3.8722
3.8226
3.7624
3.7191
3.6985
3.6907
3.6847
3.6806
3.6765
3.6454
3.5979
3.6875
4.2129
4.7628
4.9608
4.9113
4.8131
4.7596
4.7636
4.7927
4.818
4.8302
4.8338
4.8356
4.8388
4.8431
4.8471
4.8502
4.8524
4.8542
4.8557
4.8571
4.8582
4.8591
4.8599
4.8605
4.8609
4.8613
4.8616
4.8619
4.862
4.8621
4.8621
4.8621
4.8621
4.862
4.8619
4.8618
4.8617
4.8615
4.8613
4.8611
4.8608
4.8605
4.8602
4.8598
4.8594
4.859
4.8585
4.858
4.8574
4.8569
4.8562
4.8555
4.8547
4.8539
4.8529
4.8519
4.8507
4.8493
4.8478
4.846
4.842
4.8346
4.8257
4.8181
4.8131
4.8102
4.8081
4.8062
4.8043
4.8027
4.8015
4.8006
4.7999
