15.948
11.919
8.2518
6.0817
4.7558
4.0008
3.72
3.9051
4.3733
4.6659
4.6368
4.5102
4.5091
4.7989
5.2665
5.5942
5.6355
5.5211
5.4101
5.3691
5.3946
5.4535
5.4863
5.4605
5.4036
5.3667
5.4093
5.585
5.8055
5.9404
5.946
5.8674
5.7727
5.7039
5.6705
5.6633
5.6691
5.6776
5.6843
5.6887
5.6923
5.6975
5.7048
5.7124
5.7196
5.7265
5.7334
5.7405
5.7478
5.7554
5.7637
5.7728
5.7831
5.7961
5.8132
5.8378
5.8737
5.9051
5.922
5.9269
5.9246
5.9138
5.8977
5.881
5.8665
5.8548
5.8454
5.8377
5.8311
5.8254
5.8207
5.8167
5.8134
5.8107
5.8084
5.8063
5.8046
5.803
5.8016
5.8003
5.799
5.7978
5.7966
5.7953
5.7938
5.792
5.7897
5.7872
5.785
5.7832
5.7817
5.7806
5.7798
5.7792
5.7788
5.7784
5.7781
5.7778
5.7775
5.7774
5.7773
