7.6288
1.3746
1.8669
2.4885
3.1645
3.8073
4.2605
4.3158
3.9801
3.66
3.6003
3.7036
3.8155
3.8097
3.6368
3.4129
3.2946
3.2949
3.3438
3.3785
3.3743
3.3389
3.2611
3.1405
3.0739
3.0977
3.1669
3.232
3.2646
3.2652
3.2573
3.2525
3.2497
3.2446
3.237
3.23
3.2268
3.2271
3.2288
3.2297
3.2294
3.2282
3.2269
3.2258
3.225
3.2243
3.2236
3.2228
3.2219
3.2209
3.2198
3.2186
3.2173
3.2155
3.214
3.2138
3.2147
3.2164
3.2186
3.2212
3.224
3.2264
3.2286
3.2304
3.2318
3.2329
3.2338
3.2345
3.2351
3.2356
3.236
3.2364
3.2367
3.2369
3.2372
3.2373
3.2375
3.2376
3.2377
3.2378
3.2379
3.238
3.238
3.238
3.2381
3.2381
3.2381
3.2381
3.2381
3.238
3.238
3.2379
3.2377
3.2374
3.2371
3.237
3.2369
3.2368
3.2368
3.2367
3.2367
