4.6053
1.3209
1.8672
2.5224
3.2166
3.8693
4.3239
4.3607
3.9838
3.6339
3.5718
3.6905
3.827
3.8794
3.8328
3.7505
3.6513
3.4495
3.2821
3.2361
3.2586
3.283
3.2839
3.2689
3.2531
3.2433
3.2369
3.2279
3.2121
3.1831
3.1426
3.111
3.1174
3.1589
3.2029
3.2273
3.2294
3.2182
3.2053
3.1974
3.1951
3.1959
3.1975
3.1996
3.2023
3.2055
3.2091
3.2129
3.2132
3.2063
3.1968
3.1928
3.1947
3.1984
3.2012
3.2028
3.204
3.2052
3.2062
3.2069
3.2072
3.207
3.2067
3.2063
3.206
3.2058
3.2056
3.2055
3.2054
3.2054
3.2053
3.2053
3.2053
3.2053
3.2052
3.2052
3.2052
3.2052
3.2052
3.2051
3.2051
3.2051
3.2051
3.2051
3.2051
3.2052
3.2053
3.2055
3.2054
3.205
3.2043
3.2038
3.2034
3.2033
3.2033
3.2033
3.2033
3.2033
3.2033
3.2033
3.2033
