6.5237
1.2722
1.7755
2.3898
3.0651
3.7282
4.2434
4.4133
4.1785
3.8715
3.7905
3.8858
4.0064
4.0472
3.9899
3.8975
3.8399
3.8319
3.8453
3.8473
3.8246
3.7848
3.7428
3.7062
3.6726
3.6358
3.5825
3.4247
3.0774
2.8212
2.7754
2.8448
2.9328
2.9899
3.0062
3.0007
2.9931
2.9914
2.9942
2.9977
2.9998
3.0005
3.0008
3.0011
3.0015
3.0021
3.0025
3.0028
3.003
3.0031
3.0033
3.0034
3.0035
3.0036
3.0037
3.0037
3.0038
3.0038
3.0039
3.0039
3.0039
3.004
3.004
3.004
3.004
3.004
3.004
3.004
3.004
3.004
3.004
3.0041
3.0041
3.0041
3.0041
3.0041
3.0041
3.0041
3.0041
3.0041
3.0041
3.0041
3.0041
3.0041
3.0041
3.0041
3.0042
3.0042
3.0044
3.0047
3.0049
3.0048
3.0041
3.0032
3.0025
3.0021
3.0019
3.0019
3.0019
3.0019
3.0018
