9.9987
1.6174
2.0321
2.6545
3.3433
4.0187
4.5379
4.6902
4.4318
4.1818
4.0338
3.8361
3.6579
3.549
3.4998
3.4793
3.4666
3.4506
3.4129
3.3726
3.3629
3.3956
3.4443
3.4708
3.4541
3.4164
3.3828
3.3611
3.3634
3.3826
3.401
3.4096
3.4106
3.4093
3.4089
3.4098
3.4114
3.413
3.4145
3.4161
3.4173
3.4175
3.417
3.4164
3.4159
3.4156
3.4155
3.4154
3.4153
3.4151
3.4149
3.4147
3.4145
3.4144
3.4143
3.4142
3.4141
3.414
3.4139
3.4138
3.4137
3.4136
3.4135
3.4135
3.4135
3.4135
3.4135
3.4135
3.4136
3.4136
3.4137
3.4137
3.4138
3.4138
3.4138
3.4139
3.4139
3.414
3.414
3.414
3.414
3.4141
3.4141
3.4141
3.4141
3.4141
3.4141
3.4141
3.4141
3.4141
3.4141
3.4141
3.414
3.4139
3.4139
3.4139
3.4139
3.4139
3.414
3.414
3.4139
