7.31
1.4625
1.9507
2.579
3.2641
3.9218
4.3955
4.4557
4.0737
3.6891
3.5957
3.6937
3.8256
3.8442
3.6565
3.3753
3.2264
3.2189
3.2658
3.2969
3.2631
3.1498
3.0572
3.0487
3.1039
3.1774
3.2356
3.2655
3.2705
3.2614
3.2512
3.2466
3.2451
3.243
3.2393
3.2362
3.236
3.238
3.2404
3.242
3.2427
3.243
3.2429
3.2428
3.2427
3.2426
3.2422
3.2416
3.2407
3.2398
3.2386
3.2373
3.2358
3.234
3.2324
3.2324
3.2338
3.2361
3.2392
3.2428
3.2469
3.2509
3.2547
3.2582
3.2612
3.2637
3.2656
3.2671
3.2684
3.2696
3.2708
3.2718
3.2726
3.2733
3.2738
3.2743
3.2746
3.2749
3.2752
3.2754
3.2755
3.2757
3.2758
3.2759
3.2759
3.276
3.276
3.276
3.2759
3.2759
3.2757
3.2756
3.2755
3.2754
3.2754
3.2753
3.2753
3.2753
3.2753
3.2753
3.2753
