3.2303
1.5628
2.0801
2.7254
3.4268
4.1086
4.6174
4.6993
4.2773
3.842
3.7444
3.8631
4.0117
4.0694
4.0003
3.887
3.8494
3.9077
4.0059
4.0823
4.0786
3.9454
3.8369
3.7913
3.6749
3.5089
3.3537
3.2619
3.23
3.2295
3.2386
3.247
3.2504
3.2445
3.2188
3.1917
3.1774
3.175
3.1778
3.1803
3.1807
3.1795
3.178
3.1769
3.1763
3.176
3.1758
3.1754
3.175
3.1746
3.1742
3.1738
3.1734
3.1728
3.1723
3.1722
3.1724
3.1725
3.1725
3.1723
3.1719
3.1715
3.1711
3.1707
3.1703
3.17
3.1696
3.1693
3.1691
3.169
3.169
3.169
3.1689
3.1689
3.1688
3.1688
3.1687
3.1687
3.1687
3.1686
3.1686
3.1686
3.1686
3.1685
3.1685
3.1685
3.1685
3.1685
3.1685
3.1685
3.1685
3.1685
3.1685
3.1685
3.1686
3.1686
3.1686
3.1686
3.1686
3.1686
3.1686
