8.5388
1.5709
2.0587
2.6975
3.3958
4.0758
4.5869
4.6877
4.307
3.8997
3.8096
3.934
4.0938
4.1748
4.1502
4.079
4.0387
4.0555
4.1142
4.192
4.2684
4.3327
4.389
4.4488
4.5278
4.6754
4.9969
5.8004
7.0651
7.4876
7.1731
6.7718
6.5591
6.5168
6.5582
6.614
6.652
6.6703
6.6805
6.6919
6.7068
6.7228
6.7372
6.7491
6.7592
6.7689
6.7789
6.7897
6.8016
6.8148
6.83
6.8492
6.8754
6.9026
6.9023
6.8945
6.8888
6.887
6.8877
6.8893
6.8905
6.8908
6.8905
6.8896
6.8885
6.8873
6.886
6.8849
6.8839
6.8829
6.8821
6.8813
6.8806
6.88
6.8794
6.8789
6.8784
6.878
6.8776
6.8772
6.8769
6.8766
6.8763
6.8759
6.8755
6.8749
6.8746
6.8754
6.8767
6.8774
6.8772
6.8764
6.8755
6.875
6.8747
6.8745
6.8744
6.8743
6.8741
6.874
6.8738
