3.2295
9.3917
7.2417
5.5308
4.3623
3.6212
3.2451
3.2463
3.5652
3.8477
3.8461
3.6862
3.5382
3.4844
3.5172
3.5453
3.4851
3.3269
3.0857
2.6935
1.9712
1.6277
1.6247
1.7911
1.9153
1.9103
1.7955
1.5749
1.332
1.2108
1.1305
1.054
0.97345
0.88801
0.79509
0.69194
0.58059
0.46574
0.34915
0.22383
0.073236
0
0
0
0
0
0
0
0
0
0
0
0
0
0
0
0
0
0
0
0
0
0
0
0
0
0
0
0
0
0
0
0
0
0
0
0
0
0
0
0
0
0
0
0
0
0
0
0
0
0
0
0
0
0
0
0
0
0
0
0
