12.673
13.571
8.9107
6.4182
4.9626
4.1393
3.8015
3.8977
4.2311
4.4039
4.3005
4.1054
3.9764
3.9649
4.0324
4.0919
4.0871
4.0187
3.8979
3.747
3.5971
3.4642
3.3459
3.2322
3.1067
2.9221
2.8317
3.5129
4.5324
5.1648
5.3808
5.4799
5.5083
5.4933
5.4791
5.4888
5.5176
5.5502
5.5768
5.597
5.6144
5.6319
5.6499
5.6671
5.6824
5.6955
5.7066
5.7164
5.725
5.7326
5.7394
5.7458
5.7523
5.759
5.7655
5.7706
5.7746
5.7783
5.7828
5.788
5.7934
5.7988
5.8038
5.8086
5.8135
5.8184
5.8235
5.8289
5.8344
5.8402
5.8462
5.8526
5.8594
5.8667
5.8746
5.8833
5.893
5.904
5.9168
5.9319
5.9504
5.9738
6.0053
6.0508
6.1195
6.1812
6.2104
6.2162
6.2149
6.2152
6.2185
6.2228
6.2268
6.2298
6.2322
6.2341
6.2358
6.2373
6.2385
6.2396
6.2406
