2.8697
1.4078
1.9061
2.5349
3.2178
3.8742
4.354
4.4446
4.1214
3.7804
3.7021
3.809
3.9611
4.0036
3.8322
3.5505
3.3803
3.3618
3.4154
3.4641
3.4748
3.4532
3.4086
3.3515
3.3345
3.381
3.4601
3.5333
3.57
3.5684
3.5604
3.5579
3.5576
3.5538
3.5457
3.537
3.5318
3.5308
3.5317
3.5325
3.532
3.5306
3.529
3.5275
3.5264
3.5254
3.5244
3.5234
3.5223
3.5211
3.5198
3.5183
3.5168
3.5142
3.5119
3.5117
3.5133
3.5164
3.5205
3.5258
3.5315
3.5372
3.5426
3.5475
3.5517
3.5553
3.5583
3.5608
3.563
3.5649
3.5665
3.5679
3.569
3.5699
3.5707
3.5714
3.572
3.5724
3.5728
3.5732
3.5735
3.5737
3.5739
3.5741
3.5742
3.5743
3.5744
3.5744
3.5744
3.5744
3.5744
3.5743
3.5742
3.574
3.5739
3.5739
3.574
3.5741
3.5741
3.5741
3.5742
