4.6676
11.767
8.1754
6.0421
4.7237
3.9507
3.6214
3.7138
4.0659
4.2786
4.2087
4.0346
3.9216
3.9329
4.0447
4.1907
4.3531
4.5191
4.5987
4.5907
4.5719
4.598
4.6796
4.8042
4.9662
5.1998
5.6226
6.1878
6.6106
6.771
6.7104
6.5278
6.3188
6.1424
6.025
5.9627
5.934
5.9172
5.9017
5.8865
5.8746
5.8678
5.8652
5.8652
5.8662
5.8678
5.8701
5.8732
5.8773
5.8806
5.8816
5.8809
5.8802
5.8803
5.8807
5.8805
5.8795
5.8783
5.8778
5.878
5.8784
5.8787
5.8788
5.8786
5.8785
5.8783
5.8782
5.8781
5.8782
5.8782
5.8783
5.8784
5.8785
5.8786
5.8787
5.8789
5.8791
5.8793
5.8795
5.8799
5.8804
5.8811
5.8822
5.8842
5.8878
5.8897
5.8845
5.8754
5.8681
5.8648
5.8645
5.8655
5.8665
5.8673
5.8678
5.8684
5.8689
5.8694
5.8699
5.8703
5.8706
