5.7524
1.6471
2.0676
2.6994
3.3965
4.0766
4.59
4.7
4.3357
3.9386
3.8502
3.974
4.135
4.221
4.201
4.1239
4.0621
4.0457
4.0586
4.0716
4.067
4.0494
4.036
3.9622
3.7524
3.5272
3.4016
3.3823
3.384
3.2726
3.1139
3.0372
3.0409
3.0812
3.1246
3.1553
3.1721
3.1811
3.1878
3.1944
3.2002
3.2042
3.2064
3.2071
3.2072
3.207
3.2066
3.2061
3.2054
3.2046
3.2034
3.2018
3.1998
3.1971
3.1918
3.1872
3.1852
3.1851
3.1855
3.1858
3.1858
3.1854
3.185
3.1846
3.1842
3.184
3.1839
3.1838
3.1837
3.1836
3.1836
3.1836
3.1836
3.1836
3.1837
3.1837
3.1838
3.1839
3.184
3.1841
3.1843
3.1844
3.1846
3.1849
3.1851
3.1854
3.1864
3.1879
3.1892
3.1899
3.19
3.1899
3.1899
3.19
3.1901
3.1902
3.1903
3.1904
3.1904
3.1904
3.1904
