9.2096
1.5574
1.9517
2.56
3.2327
3.8746
4.3276
4.3833
4.0493
3.7258
3.5801
3.4799
3.4287
3.4359
3.4804
3.5305
3.5775
3.5821
3.4897
3.2923
3.1123
3.0551
3.0615
3.0773
3.0843
3.0855
3.0945
3.1214
3.1664
3.2157
3.2522
3.2687
3.2697
3.2639
3.2585
3.2572
3.2498
3.2165
3.1938
3.1914
3.1996
3.2078
3.2121
3.2132
3.213
3.2129
3.2132
3.2136
3.214
3.2142
3.2142
3.2142
3.2142
3.2142
3.2143
3.2143
3.2144
3.2144
3.2144
3.2145
3.2145
3.2145
3.2145
3.2145
3.2145
3.2145
3.2145
3.2145
3.2145
3.2145
3.2145
3.2145
3.2145
3.2145
3.2145
3.2145
3.2145
3.2145
3.2145
3.2145
3.2145
3.2145
3.2145
3.2145
3.2145
3.2145
3.2145
3.2145
3.2145
3.2145
3.2145
3.2146
3.2146
3.2146
3.2146
3.2146
3.2146
3.2146
3.2146
3.2146
3.2146
